{
    "count": 1118,
    "next": "https://pokeapi.co/api/v2/pokemon?offset=20&limit=20",
    "previous": null,
    "results": [{
        "name": "bulbasaur",
        "url": "https://pokeapi.co/api/v2/pokemon/1/",
        "type": "feu"
    }, {
        "name": "ivysaur",
        "url": "https://pokeapi.co/api/v2/pokemon/2/",
        "type": "feu"
    }, {
        "name": "venusaur",
        "url": "https://pokeapi.co/api/v2/pokemon/3/",
        "type": "feu"
    }, {
        "name": "charmander",
        "url": "https://pokeapi.co/api/v2/pokemon/4/",
        "type": "eau"
    }, {
        "name": "charmeleon",
        "url": "https://pokeapi.co/api/v2/pokemon/5/",
        "type": "eau"
    }, {
        "name": "charizard",
        "url": "https://pokeapi.co/api/v2/pokemon/6/",
        "type": "eau"
    }, {
        "name": "squirtle",
        "url": "https://pokeapi.co/api/v2/pokemon/7/",
        "type": "air"
    }, {
        "name": "wartortle",
        "url": "https://pokeapi.co/api/v2/pokemon/8/",
        "type": "air"
    }, {
        "name": "blastoise",
        "url": "https://pokeapi.co/api/v2/pokemon/9/",
        "type": "air"
    }, {
        "name": "caterpie",
        "url": "https://pokeapi.co/api/v2/pokemon/10/",
        "type": "vent"
    }, {
        "name": "metapod",
        "url": "https://pokeapi.co/api/v2/pokemon/11/",
        "type": "vent"
    }, {
        "name": "butterfree",
        "url": "https://pokeapi.co/api/v2/pokemon/12/",
        "type": "vent"
    }, {
        "name": "weedle",
        "url": "https://pokeapi.co/api/v2/pokemon/13/",
        "type": "elec"
    }, {
        "name": "kakuna",
        "url": "https://pokeapi.co/api/v2/pokemon/14/",
        "type": "elec"
    }, {
        "name": "beedrill",
        "url": "https://pokeapi.co/api/v2/pokemon/15/",
        "type": "elec"
    }, {
        "name": "pidgey",
        "url": "https://pokeapi.co/api/v2/pokemon/16/",
        "type": "psy"
    }, {
        "name": "pidgeotto",
        "url": "https://pokeapi.co/api/v2/pokemon/17/",
        "type": "psy"
    }, {
        "name": "pidgeot",
        "url": "https://pokeapi.co/api/v2/pokemon/18/",
        "type": "psy"
    }, {
        "name": "rattata",
        "url": "https://pokeapi.co/api/v2/pokemon/19/",
        "type": "psy"
    }, {
        "name": "raticate",
        "url": "https://pokeapi.co/api/v2/pokemon/20/",
        "type": "psy"
    }]
}